zad2.c: In function ‘main’:
zad2.c:8:1: error: unknown type name ‘time_t’
 time_t  date;
 ^
zad2.c:10:1: warning: implicit declaration of function ‘scanf’ [-Wimplicit-function-declaration]
 scanf("%d",&zakresMax);
 ^
zad2.c:10:1: warning: incompatible implicit declaration of built-in function ‘scanf’
zad2.c:11:1: warning: implicit declaration of function ‘srand’ [-Wimplicit-function-declaration]
 srand(time(&date));
 ^
zad2.c:11:1: warning: implicit declaration of function ‘time’ [-Wimplicit-function-declaration]
zad2.c:15:5: warning: implicit declaration of function ‘rand’ [-Wimplicit-function-declaration]
     tablica[i]=rand()%zakresMax;
     ^
zad2.c:16:5: warning: implicit declaration of function ‘printf’ [-Wimplicit-function-declaration]
     printf("%d\t",tablica[i]);
     ^
zad2.c:16:5: warning: incompatible implicit declaration of built-in function ‘printf’
zad2.c:18:1: warning: incompatible implicit declaration of built-in function ‘printf’
 printf("\n\n\n");
 ^
